<svg xmlns="http://www.w3.org/2000/svg" width="12" height="12" viewBox="0 0 12 12">
    <g fill="none" fill-rule="evenodd">
        <g>
            <g>
                <g>
                    <path fill="#000" d="M6 0l6 11H0L6 0zm0 2l-4 8h8L6 2z" transform="translate(-804 -294) translate(749 161) translate(55 133)"/>
                    <path fill="#C8C9CB" d="M6 2L10 10 2 10z" transform="translate(-804 -294) translate(749 161) translate(55 133)"/>
                </g>
            </g>
        </g>
    </g>
</svg>
